[
    {
        "id": "01",
        "name": "Elegant black",
        "size": "38",
        "price": 120,
        "image": "/img/1.jpg",
        "amount": 1
    },
    {
        "id": "02",
        "name": "Crazy colors",
        "size": "39",
        "price": 89,
        "image": "/img/2.jpg",
        "amount": 1
    },
    {
        "id": "03",
        "name": "Tonight red",
        "size": "39",
        "price": 99, 
        "image": "/img/3.jpg",
        "amount": 1
    },
    {
        "id": "04",
        "name": "Summer green",
        "size": "40",
        "price": 69, 
        "image": "/img/4.jpg",
        "amount": 1
    },
    {
        "id": "05",
        "name": "Comfortable turquoise",
        "size": "38",
        "price": 55, 
        "image": "/img/5.jpg", 
        "amount": 1
    },
    {
        "id": "06",
        "name": "Shiny red",
        "size": "39",
        "price": 109,
        "image": "/img/6.jpg", 
        "amount": 1
    },
    {
        "id": "07",
        "name": "All diamond",
        "size": "37",
        "price": 130,
        "image": "/img/7.jpg", 
        "amount": 1
    },
    {
        "id": "08",
        "name": "Glamorous dark pink ",
        "size": "41",
        "price": 77,
        "image": "/img/8.jpg", 
        "amount": 1
    }
]